<?xml version="1.0" encoding="UTF-8" standalone="no"?>
<!-- Generator: Adobe Illustrator 16.0.0, SVG Export Plug-In . SVG Version: 6.00 Build 0)  -->

<svg
   xmlns:dc="http://purl.org/dc/elements/1.1/"
   xmlns:cc="http://creativecommons.org/ns#"
   xmlns:rdf="http://www.w3.org/1999/02/22-rdf-syntax-ns#"
   xmlns:svg="http://www.w3.org/2000/svg"
   xmlns="http://www.w3.org/2000/svg"
   xmlns:sodipodi="http://sodipodi.sourceforge.net/DTD/sodipodi-0.dtd"
   xmlns:inkscape="http://www.inkscape.org/namespaces/inkscape"
   version="1.1"
   id="Layer_1"
   x="0px"
   y="0px"
   width="100"
   height="100"
   viewBox="0 0 100 100"
   enable-background="new 0 0 20 20"
   xml:space="preserve"
   inkscape:version="0.91 r13725"
   sodipodi:docname="grid.svg"><metadata
     id="metadata9"><rdf:RDF><cc:Work
         rdf:about=""><dc:format>image/svg+xml</dc:format><dc:type
           rdf:resource="http://purl.org/dc/dcmitype/StillImage" /><dc:title></dc:title></cc:Work></rdf:RDF></metadata><defs
     id="defs7" /><sodipodi:namedview
     pagecolor="#ffffff"
     bordercolor="#666666"
     borderopacity="1"
     objecttolerance="10"
     gridtolerance="10"
     guidetolerance="10"
     inkscape:pageopacity="0"
     inkscape:pageshadow="2"
     inkscape:window-width="1050"
     inkscape:window-height="655"
     id="namedview5"
     showgrid="false"
     inkscape:zoom="2.95"
     inkscape:cx="56.861033"
     inkscape:cy="59.175985"
     inkscape:window-x="0"
     inkscape:window-y="0"
     inkscape:window-maximized="0"
     inkscape:current-layer="Layer_1" /><path
     d="m 80.000003,100 0,-20.000001 19.999997,0 L 100,100 80.000003,100 Z m 0,-60.000003 19.999997,0 0,20.000001 -19.999997,0 0,-20.000001 z m 0,-40.0000011864688 19.999997,0 L 100,19.999997 l -19.999997,0 0,-20.0000011864688 z M 40.000002,79.999999 l 20.000001,0 0,20.000001 -20.000001,0 0,-20.000001 z m 0,-40.000002 20.000001,0 0,20.000001 -20.000001,0 0,-20.000001 z m 0,-40.0000011864688 20.000001,0 0,20.0000011864688 -20.000001,0 0,-20.0000011864688 z M 0,79.999999 l 20.000001,0 0,20.000001 L 0,100 0,79.999999 Z m 0,-40.000002 20.000001,0 0,20.000001 L 0,59.999998 0,39.999997 Z M 0,-4.1864688e-6 l 20.000001,0 0,20.0000011864688 L 0,19.999997 0,-4.1864688e-6 Z"
     id="path3"
     inkscape:connector-curvature="0"
     style="clip-rule:evenodd;fill-rule:evenodd" /></svg>